SPI_slave/sim/tb_spi_slave.vcd
$version Generated by VerilatedVcd $end
$timescale 100ps $end
 $scope module TOP $end
  $scope module tb_spi_slave $end
   $var wire 32 0 WIDTH [31:0] $end
   $var wire 1 # rst $end
   $var wire 1 - sclk $end
   $var wire 1 $ cs_n $end
   $var wire 1 % mosi $end
   $var wire 1 . miso $end
   $var wire 1 & load $end
   $var wire 8 ' din [7:0] $end
   $var wire 1 ) d_valid $end
   $var wire 8 * dout [7:0] $end
   $var real 64 1 T $end
   $var wire 32 ( spi_send_byte__Vstatic__i [31:0] $end
   $scope module dut $end
    $var wire 32 0 WIDTH [31:0] $end
    $var wire 1 # rst $end
    $var wire 1 - sclk $end
    $var wire 1 $ cs_n $end
    $var wire 1 % mosi $end
    $var wire 1 . miso $end
    $var wire 1 & load $end
    $var wire 8 ' din [7:0] $end
    $var wire 1 ) d_valid $end
    $var wire 8 * dout [7:0] $end
    $var wire 8 + shift_in [7:0] $end
    $var wire 8 / shift_out [7:0] $end
    $var wire 4 , count [3:0] $end
   $upscope $end
  $upscope $end
 $upscope $end
$enddefinitions $end


#0
1#
1$
0%
0&
b10100101 '
b00000000000000000000000000000000 (
0)
b00000000 *
b00000000 +
b0000 ,
0-
0.
b00000000 /
b00000000000000000000000000001000 0
r22.22 1
#111
1-
#222
0-
#333
1-
#444
0-
#555
1-
#666
0-
#777
1-
#888
0-
#999
1-
#1110
0-
#1111
0#
1&
#1221
1-
#1332
0-
1.
b10100101 /
#1333
0$
0&
#1443
b0001 ,
1-
#1554
0-
0.
b01001010 /
#1555
b00000000000000000000000000000110 (
#1665
b0010 ,
1-
#1776
0-
1.
b10010100 /
#1777
1%
b00000000000000000000000000000101 (
#1887
b00000001 +
b0011 ,
1-
#1998
0-
0.
b00101000 /
#1999
b00000000000000000000000000000100 (
#2109
b00000011 +
b0100 ,
1-
#2220
0-
b01010000 /
#2221
b00000000000000000000000000000011 (
#2331
b00000111 +
b0101 ,
1-
#2442
0-
1.
b10100000 /
#2443
b00000000000000000000000000000010 (
#2553
b00001111 +
b0110 ,
1-
#2664
0-
0.
b01000000 /
#2665
0%
b00000000000000000000000000000001 (
#2775
b00011110 +
b0111 ,
1-
#2886
0-
1.
b10000000 /
#2887
b00000000000000000000000000000000 (
#2997
1)
b00111100 *
b00111100 +
b0000 ,
1-
#3108
0-
0.
b00000000 /
#3109
1%
b11111111111111111111111111111111 (
#3219
0)
b01111001 +
b0001 ,
1-
#3330
0-
#3331
0%
b00000000000000000000000000000110 (
#3441
b11110010 +
b0010 ,
1-
#3552
0-
#3553
b00000000000000000000000000000101 (
#3663
b11100100 +
b0011 ,
1-
#3774
0-
#3775
b00000000000000000000000000000100 (
#3885
b11001000 +
b0100 ,
1-
#3996
0-
#3997
b00000000000000000000000000000011 (
#4107
b10010000 +
b0101 ,
1-
#4218
0-
#4219
b00000000000000000000000000000010 (
#4329
b00100000 +
b0110 ,
1-
#4440
0-
#4441
b00000000000000000000000000000001 (
#4551
b01000000 +
b0111 ,
1-
#4662
0-
#4663
b00000000000000000000000000000000 (
#4773
1)
b10000000 *
b10000000 +
b0000 ,
1-
#4884
0-
#4885
b11111111111111111111111111111111 (
#4995
0)
b00000000 +
b0001 ,
1-
#5106
0-
#5107
b00000000000000000000000000000110 (
#5217
b0010 ,
1-
#5328
0-
#5329
1%
b00000000000000000000000000000101 (
#5439
b00000001 +
b0011 ,
1-
#5550
0-
#5551
b00000000000000000000000000000100 (
#5661
b00000011 +
b0100 ,
1-
#5772
0-
#5773
0%
b00000000000000000000000000000011 (
#5883
b00000110 +
b0101 ,
1-
#5994
0-
#5995
1%
b00000000000000000000000000000010 (
#6105
b00001101 +
b0110 ,
1-
#6216
0-
#6217
b00000000000000000000000000000001 (
#6327
b00011011 +
b0111 ,
1-
#6438
0-
#6439
0%
b00000000000000000000000000000000 (
#6549
1)
b00110110 *
b00110110 +
b0000 ,
1-
#6660
0-
#6661
b11111111111111111111111111111111 (
#6771
0)
b01101100 +
b0001 ,
1-
#6882
0-
#6883
b00000000000000000000000000000110 (
#6993
b11011000 +
b0010 ,
1-
#7104
0-
#7105
b00000000000000000000000000000101 (
#7215
b10110000 +
b0011 ,
1-
#7326
0-
#7327
1%
b00000000000000000000000000000100 (
#7437
b01100001 +
b0100 ,
1-
#7548
0-
#7549
b00000000000000000000000000000011 (
#7659
b11000011 +
b0101 ,
1-
#7770
0-
#7771
0%
b00000000000000000000000000000010 (
#7881
b10000110 +
b0110 ,
1-
#7992
0-
#7993
1%
b00000000000000000000000000000001 (
#8103
b00001101 +
b0111 ,
1-
#8214
0-
#8215
b00000000000000000000000000000000 (
#8325
1)
b00011011 *
b00011011 +
b0000 ,
1-
#8436
0-
#8437
b11111111111111111111111111111111 (
#8547
0)
b00110111 +
b0001 ,
1-
#8658
0-
#8659
1$
#8769
b0000 ,
1-
