VGA_UART/sim/vga_mem.vcd
$version Generated by VerilatedVcd $end
$timescale 1ns $end
 $scope module TOP $end
  $scope module tb_vga_uart $end
   $var wire 32 L CLK_PERIOD [31:0] $end
   $var wire 32 M CLK_PER_BIT [31:0] $end
   $var wire 32 N BIT_TIME [31:0] $end
   $var wire 1 G clk $end
   $var wire 1 H rst $end
   $var wire 1 I rx $end
   $var wire 1 O tx $end
   $var wire 4 # vga_r [3:0] $end
   $var wire 4 $ vga_g [3:0] $end
   $var wire 4 % vga_b [3:0] $end
   $var wire 8 J rx_din [7:0] $end
   $var wire 1 & h_sync $end
   $var wire 1 ' v_sync $end
   $var wire 17 ( addr_count [16:0] $end
   $var wire 32 K uart_send_byte__Vstatic__i [31:0] $end
   $scope module DUT $end
    $var wire 32 P RES_X [31:0] $end
    $var wire 32 Q RES_Y [31:0] $end
    $var wire 32 R RES_DIV [31:0] $end
    $var wire 32 S MEM_WIDTH [31:0] $end
    $var wire 32 T MEM_DEPTH [31:0] $end
    $var wire 32 U ADDR_WIDTH [31:0] $end
    $var wire 32 V PIXEL_WIDTH [31:0] $end
    $var wire 1 G clk $end
    $var wire 1 H rst $end
    $var wire 1 I rx $end
    $var wire 1 O tx $end
    $var wire 4 # vga_r [3:0] $end
    $var wire 4 $ vga_g [3:0] $end
    $var wire 4 % vga_b [3:0] $end
    $var wire 1 & h_sync $end
    $var wire 1 ' v_sync $end
    $var wire 17 ( addr_count [16:0] $end
    $var wire 32 R CLK_DIV [31:0] $end
    $var wire 32 W H_COUNT_MAX [31:0] $end
    $var wire 32 X V_COUNT_MAX [31:0] $end
    $var wire 32 Y H_BITS [31:0] $end
    $var wire 32 Y V_BITS [31:0] $end
    $var wire 32 M CLK_PER_BIT [31:0] $end
    $var wire 32 S CLK_BITS [31:0] $end
    $var wire 32 S DATA_WIDTH [31:0] $end
    $var wire 32 Z PARITY_BITS [31:0] $end
    $var wire 32 [ STOP_BITS [31:0] $end
    $var wire 17 ( mem_addr [16:0] $end
    $var wire 8 ) din [7:0] $end
    $var wire 1 * wen $end
    $var wire 8 + dout [7:0] $end
    $var wire 1 I rx_din $end
    $var wire 8 , rx_dout [7:0] $end
    $var wire 1 - rx_done $end
    $scope module UART $end
     $var wire 32 S CLK_BITS [31:0] $end
     $var wire 32 S DATA_WIDTH [31:0] $end
     $var wire 32 Z PARITY_BITS [31:0] $end
     $var wire 32 [ STOP_BITS [31:0] $end
     $var wire 1 G clk $end
     $var wire 1 H rst $end
     $var wire 8 \ clk_per_bit [7:0] $end
     $var wire 8 ] TX_dataIn [7:0] $end
     $var wire 1 ^ TX_en $end
     $var wire 1 I RX_dataIn $end
     $var wire 1 . TX_out $end
     $var wire 1 / TX_done $end
     $var wire 1 0 TX_busy $end
     $var wire 8 , RX_dataOut [7:0] $end
     $var wire 1 - RX_done $end
     $var wire 1 _ RX_parityError $end
     $scope module UART_RX1 $end
      $var wire 32 S CLK_BITS [31:0] $end
      $var wire 32 S DATA_WIDTH [31:0] $end
      $var wire 32 [ STOP_BITS [31:0] $end
      $var wire 32 Z PARITY_BITS [31:0] $end
      $var wire 32 Y PACKET_SIZE [31:0] $end
      $var wire 1 G clk $end
      $var wire 1 H rst $end
      $var wire 8 \ clk_per_bit [7:0] $end
      $var wire 1 I dataIn $end
      $var wire 8 , RXout [7:0] $end
      $var wire 1 - RXdone $end
      $var wire 1 _ parityError $end
      $var wire 32 V indexBits [31:0] $end
      $var wire 4 1 index [3:0] $end
      $var wire 8 2 clkCount [7:0] $end
      $var wire 1 3 regInMeta $end
      $var wire 1 4 regIn $end
      $var wire 1 ` parity $end
      $var wire 8 5 dataOut [7:0] $end
      $var wire 1 - dataDone $end
      $var wire 2 6 state [1:0] $end
     $upscope $end
     $scope module UART_TX1 $end
      $var wire 32 S CLK_BITS [31:0] $end
      $var wire 32 S DATA_WIDTH [31:0] $end
      $var wire 32 [ STOP_BITS [31:0] $end
      $var wire 32 Z PARITY_BITS [31:0] $end
      $var wire 32 Y PACKET_SIZE [31:0] $end
      $var wire 1 G clk $end
      $var wire 1 H rst $end
      $var wire 8 \ clk_per_bit [7:0] $end
      $var wire 8 ] dataIn [7:0] $end
      $var wire 1 ^ TXen $end
      $var wire 1 . TXout $end
      $var wire 1 / TXdone $end
      $var wire 1 0 busy $end
      $var wire 32 V indexBits [31:0] $end
      $var wire 10 7 packet [9:0] $end
      $var wire 1 a parityBit $end
      $var wire 4 8 index [3:0] $end
      $var wire 8 9 clkCount [7:0] $end
      $var wire 2 : state [1:0] $end
     $upscope $end
    $upscope $end
    $scope module VGA $end
     $var wire 32 P RES_X [31:0] $end
     $var wire 32 Q RES_Y [31:0] $end
     $var wire 32 R RES_DIV [31:0] $end
     $var wire 32 S MEM_WIDTH [31:0] $end
     $var wire 32 T MEM_DEPTH [31:0] $end
     $var wire 32 U ADDR_WIDTH [31:0] $end
     $var wire 32 V PIXEL_WIDTH [31:0] $end
     $var wire 1 G clk $end
     $var wire 1 H rst $end
     $var wire 17 ( mem_addr [16:0] $end
     $var wire 8 ) din [7:0] $end
     $var wire 1 * wen $end
     $var wire 8 + dout [7:0] $end
     $var wire 4 # vga_r [3:0] $end
     $var wire 4 $ vga_g [3:0] $end
     $var wire 4 % vga_b [3:0] $end
     $var wire 1 & h_sync $end
     $var wire 1 ' v_sync $end
     $var wire 32 R CLK_DIV [31:0] $end
     $var wire 32 W H_COUNT_MAX [31:0] $end
     $var wire 32 X V_COUNT_MAX [31:0] $end
     $var wire 32 Y H_BITS [31:0] $end
     $var wire 32 Y V_BITS [31:0] $end
     $var wire 9 ; mem_x [8:0] $end
     $var wire 8 < mem_y [7:0] $end
     $var wire 10 = vga_x [9:0] $end
     $var wire 10 > vga_y [9:0] $end
     $var wire 1 ? vga_active $end
     $var wire 1 * we_a $end
     $var wire 17 ( addr_a [16:0] $end
     $var wire 8 ) din_a [7:0] $end
     $var wire 8 + dout_a [7:0] $end
     $var wire 17 @ addr_b [16:0] $end
     $var wire 8 A dout_b [7:0] $end
     $var wire 17 b mem_addr_vga [16:0] $end
     $var wire 8 c mem_d_out_vga [7:0] $end
     $scope module RAM $end
      $var wire 32 S DATA_WIDTH [31:0] $end
      $var wire 32 T MEM_DEPTH [31:0] $end
      $var wire 32 U ADDR_WIDTH [31:0] $end
      $var wire 1 G clk $end
      $var wire 1 * we_a $end
      $var wire 17 ( addr_a [16:0] $end
      $var wire 8 ) din_a [7:0] $end
      $var wire 8 + dout_a [7:0] $end
      $var wire 1 d we_b $end
      $var wire 17 @ addr_b [16:0] $end
      $var wire 8 e din_b [7:0] $end
      $var wire 8 A dout_b [7:0] $end
     $upscope $end
     $scope module VGA $end
      $var wire 32 V PIXEL_BITS [31:0] $end
      $var wire 32 R CLK_DIV [31:0] $end
      $var wire 32 W H_COUNT_MAX [31:0] $end
      $var wire 32 X V_COUNT_MAX [31:0] $end
      $var wire 32 Y H_BITS [31:0] $end
      $var wire 32 Y V_BITS [31:0] $end
      $var wire 1 G clk $end
      $var wire 1 H rst $end
      $var wire 4 B vga_r [3:0] $end
      $var wire 4 B vga_g [3:0] $end
      $var wire 4 B vga_b [3:0] $end
      $var wire 1 & h_sync $end
      $var wire 1 ' v_sync $end
      $var wire 10 = vga_x [9:0] $end
      $var wire 10 > vga_y [9:0] $end
      $var wire 1 ? vga_active $end
      $var wire 32 [ CLK_DIV_BITS [31:0] $end
      $var wire 1 C vga_en $end
      $var wire 1 D clk_div_count [0:0] $end
      $var wire 10 E h_count [9:0] $end
      $var wire 10 F v_count [9:0] $end
     $upscope $end
    $upscope $end
   $upscope $end
  $upscope $end
 $upscope $end
$enddefinitions $end


#0
b0000 #
b0000 $
b0000 %
0&
0'
b00000000000000000 (
b00000000 )
0*
b00000000 +
b00000000 ,
0-
0.
0/
00
b0000 1
b00000000 2
03
04
b00000000 5
b00 6
b0000000000 7
b0000 8
b00000000 9
b00 :
b000000000 ;
b00000000 <
b0000000000 =
b0000000000 >
0?
b00000000000000000 @
b00000000 A
b0000 B
0C
0D
b0000000000 E
b0000000000 F
0G
1H
1I
b00000000 J
b00000000000000000000000000000000 K
b00000000000000000000000000010100 L
b00000000000000000000000000110010 M
b00000000000000000000001111101000 N
0O
b00000000000000000000000101000000 P
b00000000000000000000000011110000 Q
b00000000000000000000000000000010 R
b00000000000000000000000000001000 S
b00000000000000010010110000000000 T
b00000000000000000000000000010001 U
b00000000000000000000000000000100 V
b00000000000000000000001100100000 W
b00000000000000000000001000001101 X
b00000000000000000000000000001010 Y
b00000000000000000000000000000000 Z
b00000000000000000000000000000001 [
b00110010 \
b00000000 ]
0^
0_
0`
0a
b00000000000000000 b
b00000000 c
0d
b00000000 e
#10
1.
13
1G
#20
0G
#30
14
1G
#40
0G
#50
1G
#60
0G
#70
1G
#80
0G
#90
1G
#100
0G
0H
#110
1D
1G
#120
0G
#130
1C
0D
1G
#140
0G
#150
0C
1D
b0000000001 E
1G
#160
0G
#170
1C
0D
1G
#180
0G
#190
0C
1D
b0000000010 E
1G
#200
0G
#210
1C
0D
1G
#220
0G
#230
0C
1D
b0000000011 E
1G
#240
0G
#250
1C
0D
1G
#260
0G
#270
0C
1D
b0000000100 E
1G
#280
0G
#290
1C
0D
1G
#300
0G
#310
0C
1D
b0000000101 E
1G
#320
0G
#330
1C
0D
1G
#340
0G
#350
0C
1D
b0000000110 E
1G
#360
0G
#370
1C
0D
1G
#380
0G
#390
0C
1D
b0000000111 E
1G
#400
0G
#410
1C
0D
1G
#420
0G
#430
0C
1D
b0000001000 E
1G
#440
0G
#450
1C
0D
1G
#460
0G
#470
0C
1D
b0000001001 E
1G
#480
0G
#490
1C
0D
1G
#500
0G
#510
0C
1D
b0000001010 E
1G
#520
0G
#530
1C
0D
1G
#540
0G
#550
0C
1D
b0000001011 E
1G
#560
0G
#570
1C
0D
1G
#580
0G
#590
0C
1D
b0000001100 E
1G
#600
0G
#610
1C
0D
1G
#620
0G
#630
0C
1D
b0000001101 E
1G
#640
0G
#650
1C
0D
1G
#660
0G
#670
0C
1D
b0000001110 E
1G
#680
0G
#690
1C
0D
1G
#700
0G
#710
0C
1D
b0000001111 E
1G
#720
0G
#730
1C
0D
1G
#740
0G
#750
0C
1D
b0000010000 E
1G
#760
0G
#770
1C
0D
1G
#780
0G
#790
0C
1D
b0000010001 E
1G
#800
0G
#810
1C
0D
1G
#820
0G
#830
0C
1D
b0000010010 E
1G
#840
0G
#850
1C
0D
1G
#860
0G
#870
0C
1D
b0000010011 E
1G
#880
0G
#890
1C
0D
1G
#900
0G
#910
0C
1D
b0000010100 E
1G
#920
0G
#930
1C
0D
1G
#940
0G
#950
0C
1D
b0000010101 E
1G
#960
0G
#970
1C
0D
1G
#980
0G
#990
0C
1D
b0000010110 E
1G
#1000
0G
#1010
1C
0D
1G
#1020
0G
#1030
0C
1D
b0000010111 E
1G
#1040
0G
#1050
1C
0D
1G
#1060
0G
#1070
0C
1D
b0000011000 E
1G
#1080
0G
#1090
1C
0D
1G
#1100
0G
0I
b10000000 J
#1110
03
0C
1D
b0000011001 E
1G
#1120
0G
#1130
04
1C
0D
1G
#1140
0G
#1150
b01 6
0C
1D
b0000011010 E
1G
#1160
0G
#1170
b00000001 2
1C
0D
1G
#1180
0G
#1190
b00000010 2
0C
1D
b0000011011 E
1G
#1200
0G
#1210
b00000011 2
1C
0D
1G
#1220
0G
#1230
b00000100 2
0C
1D
b0000011100 E
1G
#1240
0G
#1250
b00000101 2
1C
0D
1G
#1260
0G
#1270
b00000110 2
0C
1D
b0000011101 E
1G
#1280
0G
#1290
b00000111 2
1C
0D
1G
#1300
0G
#1310
b00001000 2
0C
1D
b0000011110 E
1G
#1320
0G
#1330
b00001001 2
1C
0D
1G
#1340
0G
#1350
b00001010 2
0C
1D
b0000011111 E
1G
#1360
0G
#1370
b00001011 2
1C
0D
1G
#1380
0G
#1390
b00001100 2
0C
1D
b0000100000 E
1G
#1400
0G
#1410
b00001101 2
1C
0D
1G
#1420
0G
#1430
b00001110 2
0C
1D
b0000100001 E
1G
#1440
0G
#1450
b00001111 2
1C
0D
1G
#1460
0G
#1470
b00010000 2
0C
1D
b0000100010 E
1G
#1480
0G
#1490
b00010001 2
1C
0D
1G
#1500
0G
#1510
b00010010 2
0C
1D
b0000100011 E
1G
#1520
0G
#1530
b00010011 2
1C
0D
1G
#1540
0G
#1550
b00010100 2
0C
1D
b0000100100 E
1G
#1560
0G
#1570
b00010101 2
1C
0D
1G
#1580
0G
#1590
b00010110 2
0C
1D
b0000100101 E
1G
#1600
0G
#1610
b00010111 2
1C
0D
1G
#1620
0G
#1630
b00011000 2
0C
1D
b0000100110 E
1G
#1640
0G
#1650
b00000000 2
b10 6
1C
0D
1G
#1660
0G
#1670
b00000001 2
0C
1D
b0000100111 E
1G
#1680
0G
#1690
b00000010 2
1C
0D
1G
#1700
0G
#1710
b00000011 2
0C
1D
b0000101000 E
1G
#1720
0G
#1730
b00000100 2
1C
0D
1G
#1740
0G
#1750
b00000101 2
0C
1D
b0000101001 E
1G
#1760
0G
#1770
b00000110 2
1C
0D
1G
#1780
0G
#1790
b00000111 2
0C
1D
b0000101010 E
1G
#1800
0G
#1810
b00001000 2
1C
0D
1G
#1820
0G
#1830
b00001001 2
0C
1D
b0000101011 E
1G
#1840
0G
#1850
b00001010 2
1C
0D
1G
#1860
0G
#1870
b00001011 2
0C
1D
b0000101100 E
1G
#1880
0G
#1890
b00001100 2
1C
0D
1G
#1900
0G
#1910
b00001101 2
0C
1D
b0000101101 E
1G
#1920
0G
#1930
b00001110 2
1C
0D
1G
#1940
0G
#1950
b00001111 2
0C
1D
b0000101110 E
1G
#1960
0G
#1970
b00010000 2
1C
0D
1G
#1980
0G
#1990
b00010001 2
0C
1D
b0000101111 E
1G
#2000
0G
#2010
b00010010 2
1C
0D
1G
#2020
0G
#2030
b00010011 2
0C
1D
b0000110000 E
1G
#2040
0G
#2050
b00010100 2
1C
0D
1G
#2060
0G
#2070
b00010101 2
0C
1D
b0000110001 E
1G
#2080
0G
#2090
b00010110 2
1C
0D
1G
#2100
0G
#2110
b00010111 2
0C
1D
b0000110010 E
1G
#2120
0G
#2130
b00011000 2
1C
0D
1G
#2140
0G
#2150
b00011001 2
0C
1D
b0000110011 E
1G
#2160
0G
#2170
b00011010 2
1C
0D
1G
#2180
0G
#2190
b00011011 2
0C
1D
b0000110100 E
1G
#2200
0G
#2210
b00011100 2
1C
0D
1G
#2220
0G
#2230
b00011101 2
0C
1D
b0000110101 E
1G
#2240
0G
#2250
b00011110 2
1C
0D
1G
#2260
0G
#2270
b00011111 2
0C
1D
b0000110110 E
1G
#2280
0G
#2290
b00100000 2
1C
0D
1G
#2300
0G
#2310
b00100001 2
0C
1D
b0000110111 E
1G
#2320
0G
#2330
b00100010 2
1C
0D
1G
#2340
0G
#2350
b00100011 2
0C
1D
b0000111000 E
1G
#2360
0G
#2370
b00100100 2
1C
0D
1G
#2380
0G
#2390
b00100101 2
0C
1D
b0000111001 E
1G
#2400
0G
#2410
b00100110 2
1C
0D
1G
#2420
0G
#2430
b00100111 2
0C
1D
b0000111010 E
1G
#2440
0G
#2450
b00101000 2
1C
0D
1G
#2460
0G
#2470
b00101001 2
0C
1D
b0000111011 E
1G
#2480
0G
#2490
b00101010 2
1C
0D
1G
#2500
0G
#2510
b00101011 2
0C
1D
b0000111100 E
1G
#2520
0G
#2530
b00101100 2
1C
0D
1G
#2540
0G
#2550
b00101101 2
0C
1D
b0000111101 E
1G
#2560
0G
#2570
b00101110 2
1C
0D
1G
#2580
0G
#2590
b00101111 2
0C
1D
b0000111110 E
1G
#2600
0G
#2610
b00110000 2
1C
0D
1G
#2620
0G
#2630
b00110001 2
0C
1D
b0000111111 E
1G
#2640
0G
#2650
b0001 1
b00000000 2
1C
0D
1G
#2660
0G
#2670
b00000001 2
0C
1D
b0001000000 E
1G
#2680
0G
#2690
b00000010 2
1C
0D
1G
#2700
0G
#2710
b00000011 2
0C
1D
b0001000001 E
1G
#2720
0G
#2730
b00000100 2
1C
0D
1G
#2740
0G
#2750
b00000101 2
0C
1D
b0001000010 E
1G
#2760
0G
#2770
b00000110 2
1C
0D
1G
#2780
0G
#2790
b00000111 2
0C
1D
b0001000011 E
1G
#2800
0G
#2810
b00001000 2
1C
0D
1G
#2820
0G
#2830
b00001001 2
0C
1D
b0001000100 E
1G
#2840
0G
#2850
b00001010 2
1C
0D
1G
#2860
0G
#2870
b00001011 2
0C
1D
b0001000101 E
1G
#2880
0G
#2890
b00001100 2
1C
0D
1G
#2900
0G
#2910
b00001101 2
0C
1D
b0001000110 E
1G
#2920
0G
#2930
b00001110 2
1C
0D
1G
#2940
0G
#2950
b00001111 2
0C
1D
b0001000111 E
1G
#2960
0G
#2970
b00010000 2
1C
0D
1G
#2980
0G
#2990
b00010001 2
0C
1D
b0001001000 E
1G
#3000
0G
#3010
b00010010 2
1C
0D
1G
#3020
0G
#3030
b00010011 2
0C
1D
b0001001001 E
1G
#3040
0G
#3050
b00010100 2
1C
0D
1G
#3060
0G
#3070
b00010101 2
0C
1D
b0001001010 E
1G
#3080
0G
#3090
b00010110 2
1C
0D
1G
#3100
0G
b00000000000000000000000000000001 K
#3110
b00010111 2
0C
1D
b0001001011 E
1G
#3120
0G
#3130
b00011000 2
1C
0D
1G
#3140
0G
#3150
b00011001 2
0C
1D
b0001001100 E
1G
#3160
0G
#3170
b00011010 2
1C
0D
1G
#3180
0G
#3190
b00011011 2
0C
1D
b0001001101 E
1G
#3200
0G
#3210
b00011100 2
1C
0D
1G
#3220
0G
#3230
b00011101 2
0C
1D
b0001001110 E
1G
#3240
0G
#3250
b00011110 2
1C
0D
1G
#3260
0G
#3270
b00011111 2
0C
1D
b0001001111 E
1G
#3280
0G
#3290
b00100000 2
1C
0D
1G
#3300
0G
#3310
b00100001 2
0C
1D
b0001010000 E
1G
#3320
0G
#3330
b00100010 2
1C
0D
1G
#3340
0G
#3350
b00100011 2
0C
1D
b0001010001 E
1G
#3360
0G
#3370
b00100100 2
1C
0D
1G
#3380
0G
#3390
b00100101 2
0C
1D
b0001010010 E
1G
#3400
0G
#3410
b00100110 2
1C
0D
1G
#3420
0G
#3430
b00100111 2
0C
1D
b0001010011 E
1G
#3440
0G
#3450
b00101000 2
1C
0D
1G
#3460
0G
#3470
b00101001 2
0C
1D
b0001010100 E
1G
#3480
0G
#3490
b00101010 2
1C
0D
1G
#3500
0G
#3510
b00101011 2
0C
1D
b0001010101 E
1G
#3520
0G
#3530
b00101100 2
1C
0D
1G
#3540
0G
#3550
b00101101 2
0C
1D
b0001010110 E
1G
#3560
0G
#3570
b00101110 2
1C
0D
1G
#3580
0G
#3590
b00101111 2
0C
1D
b0001010111 E
1G
#3600
0G
#3610
b00110000 2
1C
0D
1G
#3620
0G
#3630
b00110001 2
0C
1D
b0001011000 E
1G
#3640
0G
#3650
b0010 1
b00000000 2
1C
0D
1G
#3660
0G
#3670
b00000001 2
0C
1D
b0001011001 E
1G
#3680
0G
#3690
b00000010 2
1C
0D
1G
#3700
0G
#3710
b00000011 2
0C
1D
b0001011010 E
1G
#3720
0G
#3730
b00000100 2
1C
0D
1G
#3740
0G
#3750
b00000101 2
0C
1D
b0001011011 E
1G
#3760
0G
#3770
b00000110 2
1C
0D
1G
#3780
0G
#3790
b00000111 2
0C
1D
b0001011100 E
1G
#3800
0G
#3810
b00001000 2
1C
0D
1G
#3820
0G
#3830
b00001001 2
0C
1D
b0001011101 E
1G
#3840
0G
#3850
b00001010 2
1C
0D
1G
#3860
0G
#3870
b00001011 2
0C
1D
b0001011110 E
1G
#3880
0G
#3890
b00001100 2
1C
0D
1G
#3900
0G
#3910
b00001101 2
0C
1D
b0001011111 E
1G
#3920
0G
#3930
b00001110 2
1C
0D
1G
#3940
0G
#3950
1&
b00001111 2
0C
1D
b0001100000 E
1G
#3960
0G
#3970
b00010000 2
1C
0D
1G
#3980
0G
#3990
b00010001 2
0C
1D
b0001100001 E
1G
#4000
0G
#4010
b00010010 2
1C
0D
1G
#4020
0G
#4030
b00010011 2
0C
1D
b0001100010 E
1G
#4040
0G
#4050
b00010100 2
1C
0D
1G
#4060
0G
#4070
b00010101 2
0C
1D
b0001100011 E
1G
#4080
0G
#4090
b00010110 2
1C
0D
1G
#4100
0G
b00000000000000000000000000000010 K
#4110
b00010111 2
0C
1D
b0001100100 E
1G
#4120
0G
#4130
b00011000 2
1C
0D
1G
#4140
0G
#4150
b00011001 2
0C
1D
b0001100101 E
1G
#4160
0G
#4170
b00011010 2
1C
0D
1G
#4180
0G
#4190
b00011011 2
0C
1D
b0001100110 E
1G
#4200
0G
#4210
b00011100 2
1C
0D
1G
#4220
0G
#4230
b00011101 2
0C
1D
b0001100111 E
1G
#4240
0G
#4250
b00011110 2
1C
0D
1G
#4260
0G
#4270
b00011111 2
0C
1D
b0001101000 E
1G
#4280
0G
#4290
b00100000 2
1C
0D
1G
#4300
0G
#4310
b00100001 2
0C
1D
b0001101001 E
1G
#4320
0G
#4330
b00100010 2
1C
0D
1G
#4340
0G
#4350
b00100011 2
0C
1D
b0001101010 E
1G
#4360
0G
#4370
b00100100 2
1C
0D
1G
#4380
0G
#4390
b00100101 2
0C
1D
b0001101011 E
1G
#4400
0G
#4410
b00100110 2
1C
0D
1G
#4420
0G
#4430
b00100111 2
0C
1D
b0001101100 E
1G
#4440
0G
#4450
b00101000 2
1C
0D
1G
#4460
0G
#4470
b00101001 2
0C
1D
b0001101101 E
1G
#4480
0G
#4490
b00101010 2
1C
0D
1G
#4500
0G
#4510
b00101011 2
0C
1D
b0001101110 E
1G
#4520
0G
#4530
b00101100 2
1C
0D
1G
#4540
0G
#4550
b00101101 2
0C
1D
b0001101111 E
1G
#4560
0G
#4570
b00101110 2
1C
0D
1G
#4580
0G
#4590
b00101111 2
0C
1D
b0001110000 E
1G
#4600
0G
#4610
b00110000 2
1C
0D
1G
#4620
0G
#4630
b00110001 2
0C
1D
b0001110001 E
1G
#4640
0G
#4650
b0011 1
b00000000 2
1C
0D
1G
#4660
0G
#4670
b00000001 2
0C
1D
b0001110010 E
1G
#4680
0G
#4690
b00000010 2
1C
0D
1G
#4700
0G
#4710
b00000011 2
0C
1D
b0001110011 E
1G
#4720
0G
#4730
b00000100 2
1C
0D
1G
#4740
0G
#4750
b00000101 2
0C
1D
b0001110100 E
1G
#4760
0G
#4770
b00000110 2
1C
0D
1G
#4780
0G
#4790
b00000111 2
0C
1D
b0001110101 E
1G
#4800
0G
#4810
b00001000 2
1C
0D
1G
#4820
0G
#4830
b00001001 2
0C
1D
b0001110110 E
1G
#4840
0G
#4850
b00001010 2
1C
0D
1G
#4860
0G
#4870
b00001011 2
0C
1D
b0001110111 E
1G
#4880
0G
#4890
b00001100 2
1C
0D
1G
#4900
0G
#4910
b00001101 2
0C
1D
b0001111000 E
1G
#4920
0G
#4930
b00001110 2
1C
0D
1G
#4940
0G
#4950
b00001111 2
0C
1D
b0001111001 E
1G
#4960
0G
#4970
b00010000 2
1C
0D
1G
#4980
0G
#4990
b00010001 2
0C
1D
b0001111010 E
1G
#5000
0G
#5010
b00010010 2
1C
0D
1G
#5020
0G
#5030
b00010011 2
0C
1D
b0001111011 E
1G
#5040
0G
#5050
b00010100 2
1C
0D
1G
#5060
0G
#5070
b00010101 2
0C
1D
b0001111100 E
1G
#5080
0G
#5090
b00010110 2
1C
0D
1G
#5100
0G
b00000000000000000000000000000011 K
#5110
b00010111 2
0C
1D
b0001111101 E
1G
#5120
0G
#5130
b00011000 2
1C
0D
1G
#5140
0G
#5150
b00011001 2
0C
1D
b0001111110 E
1G
#5160
0G
#5170
b00011010 2
1C
0D
1G
#5180
0G
#5190
b00011011 2
0C
1D
b0001111111 E
1G
#5200
0G
#5210
b00011100 2
1C
0D
1G
#5220
0G
#5230
b00011101 2
0C
1D
b0010000000 E
1G
#5240
0G
#5250
b00011110 2
1C
0D
1G
#5260
0G
#5270
b00011111 2
0C
1D
b0010000001 E
1G
#5280
0G
#5290
b00100000 2
1C
0D
1G
#5300
0G
#5310
b00100001 2
0C
1D
b0010000010 E
1G
#5320
0G
#5330
b00100010 2
1C
0D
1G
#5340
0G
#5350
b00100011 2
0C
1D
b0010000011 E
1G
#5360
0G
#5370
b00100100 2
1C
0D
1G
#5380
0G
#5390
b00100101 2
0C
1D
b0010000100 E
1G
#5400
0G
#5410
b00100110 2
1C
0D
1G
#5420
0G
#5430
b00100111 2
0C
1D
b0010000101 E
1G
#5440
0G
#5450
b00101000 2
1C
0D
1G
#5460
0G
#5470
b00101001 2
0C
1D
b0010000110 E
1G
#5480
0G
#5490
b00101010 2
1C
0D
1G
#5500
0G
#5510
b00101011 2
0C
1D
b0010000111 E
1G
#5520
0G
#5530
b00101100 2
1C
0D
1G
#5540
0G
#5550
b00101101 2
0C
1D
b0010001000 E
1G
#5560
0G
#5570
b00101110 2
1C
0D
1G
#5580
0G
#5590
b00101111 2
0C
1D
b0010001001 E
1G
#5600
0G
#5610
b00110000 2
1C
0D
1G
#5620
0G
#5630
b00110001 2
0C
1D
b0010001010 E
1G
#5640
0G
#5650
b0100 1
b00000000 2
1C
0D
1G
#5660
0G
#5670
b00000001 2
0C
1D
b0010001011 E
1G
#5680
0G
#5690
b00000010 2
1C
0D
1G
#5700
0G
#5710
b00000011 2
0C
1D
b0010001100 E
1G
#5720
0G
#5730
b00000100 2
1C
0D
1G
#5740
0G
#5750
b00000101 2
0C
1D
b0010001101 E
1G
#5760
0G
#5770
b00000110 2
1C
0D
1G
#5780
0G
#5790
b00000111 2
0C
1D
b0010001110 E
1G
#5800
0G
#5810
b00001000 2
1C
0D
1G
#5820
0G
#5830
b00001001 2
0C
1D
b0010001111 E
1G
#5840
0G
#5850
b00001010 2
1C
0D
1G
#5860
0G
#5870
b00001011 2
0C
1D
b0010010000 E
1G
#5880
0G
#5890
b00001100 2
1C
0D
1G
#5900
0G
#5910
b00001101 2
0C
1D
b0010010001 E
1G
#5920
0G
#5930
b00001110 2
1C
0D
1G
#5940
0G
#5950
b00001111 2
0C
1D
b0010010010 E
1G
#5960
0G
#5970
b00010000 2
1C
0D
1G
#5980
0G
#5990
b00010001 2
0C
1D
b0010010011 E
1G
#6000
0G
#6010
b00010010 2
1C
0D
1G
#6020
0G
#6030
b00010011 2
0C
1D
b0010010100 E
1G
#6040
0G
#6050
b00010100 2
1C
0D
1G
#6060
0G
#6070
b00010101 2
0C
1D
b0010010101 E
1G
#6080
0G
#6090
b00010110 2
1C
0D
1G
#6100
0G
b00000000000000000000000000000100 K
#6110
b00010111 2
0C
1D
b0010010110 E
1G
#6120
0G
#6130
b00011000 2
1C
0D
1G
#6140
0G
#6150
b00011001 2
0C
1D
b0010010111 E
1G
#6160
0G
#6170
b00011010 2
1C
0D
1G
#6180
0G
#6190
b00011011 2
0C
1D
b0010011000 E
1G
#6200
0G
#6210
b00011100 2
1C
0D
1G
#6220
0G
#6230
b00011101 2
0C
1D
b0010011001 E
1G
#6240
0G
#6250
b00011110 2
1C
0D
1G
#6260
0G
#6270
b00011111 2
0C
1D
b0010011010 E
1G
#6280
0G
#6290
b00100000 2
1C
0D
1G
#6300
0G
#6310
b00100001 2
0C
1D
b0010011011 E
1G
#6320
0G
#6330
b00100010 2
1C
0D
1G
#6340
0G
#6350
b00100011 2
0C
1D
b0010011100 E
1G
#6360
0G
#6370
b00100100 2
1C
0D
1G
#6380
0G
#6390
b00100101 2
0C
1D
b0010011101 E
1G
#6400
0G
#6410
b00100110 2
1C
0D
1G
#6420
0G
#6430
b00100111 2
0C
1D
b0010011110 E
1G
#6440
0G
#6450
b00101000 2
1C
0D
1G
#6460
0G
#6470
b00101001 2
0C
1D
b0010011111 E
1G
#6480
0G
#6490
b00101010 2
1C
0D
1G
#6500
0G
#6510
b00101011 2
0C
1D
b0010100000 E
1G
#6520
0G
#6530
b00101100 2
1C
0D
1G
#6540
0G
#6550
b00101101 2
0C
1D
b0010100001 E
1G
#6560
0G
#6570
b00101110 2
1C
0D
1G
#6580
0G
#6590
b00101111 2
0C
1D
b0010100010 E
1G
#6600
0G
#6610
b00110000 2
1C
0D
1G
#6620
0G
#6630
b00110001 2
0C
1D
b0010100011 E
1G
#6640
0G
#6650
b0101 1
b00000000 2
1C
0D
1G
#6660
0G
#6670
b00000001 2
0C
1D
b0010100100 E
1G
#6680
0G
#6690
b00000010 2
1C
0D
1G
#6700
0G
#6710
b00000011 2
0C
1D
b0010100101 E
1G
#6720
0G
#6730
b00000100 2
1C
0D
1G
#6740
0G
#6750
b00000101 2
0C
1D
b0010100110 E
1G
#6760
0G
#6770
b00000110 2
1C
0D
1G
#6780
0G
#6790
b00000111 2
0C
1D
b0010100111 E
1G
#6800
0G
#6810
b00001000 2
1C
0D
1G
#6820
0G
#6830
b00001001 2
0C
1D
b0010101000 E
1G
#6840
0G
#6850
b00001010 2
1C
0D
1G
#6860
0G
#6870
b00001011 2
0C
1D
b0010101001 E
1G
#6880
0G
#6890
b00001100 2
1C
0D
1G
#6900
0G
#6910
b00001101 2
0C
1D
b0010101010 E
1G
#6920
0G
#6930
b00001110 2
1C
0D
1G
#6940
0G
#6950
b00001111 2
0C
1D
b0010101011 E
1G
#6960
0G
#6970
b00010000 2
1C
0D
1G
#6980
0G
#6990
b00010001 2
0C
1D
b0010101100 E
1G
#7000
0G
#7010
b00010010 2
1C
0D
1G
#7020
0G
#7030
b00010011 2
0C
1D
b0010101101 E
1G
#7040
0G
#7050
b00010100 2
1C
0D
1G
#7060
0G
#7070
b00010101 2
0C
1D
b0010101110 E
1G
#7080
0G
#7090
b00010110 2
1C
0D
1G
#7100
0G
b00000000000000000000000000000101 K
#7110
b00010111 2
0C
1D
b0010101111 E
1G
